{
  "pipeline": {
    "build": {
      "dependsOn": ["^build"],
      "outputs": ["dist/**", ".next/**"]
    },
    "build:docker": {
    },
    "lint": {
      "outputs": []
    },
    "dev": {
      "cache": false
    },
    "reset": {
    },
    "start": {
    }
  }
}
